(846.012,0) (32.9047,-79.4881) (-106.809,135.096) (134.965,-36.1593) 
(-39.9624,21.7404) (-16.3616,-24.2348) (-11.3751,-2.94699) (-117.433,110.354) 
(-239.769,0) (-117.433,-110.354) (-11.3751,2.94699) (-16.3616,24.2348) 
(-39.9624,-21.7404) (134.965,36.1593) (-106.809,-135.096) (32.9047,79.4881) 

(52.8757,0) (2.05654,4.96801) (-6.67559,-8.44348) (8.43531,2.25996) 
(-2.49765,-1.35878) (-1.0226,1.51468) (-0.710945,0.184187) (-7.33957,-6.89714) 
(-14.9855,0) (-7.33957,6.89714) (-0.710945,-0.184187) (-1.0226,-1.51468) 
(-2.49765,1.35878) (8.43531,-2.25996) (-6.67559,8.44348) (2.05654,-4.96801) 

(846.012,0) (-39.9624,21.7404) (-239.769,0) (-39.9624,-21.7404) 
(34.9987,-85.5131) (-37.1066,-66.5761) (-18.4438,-146.599) (54.6267,120.771) 
(-221.557,0) (9.92905,67.4822) (-34.6704,0) (9.92905,-67.4822) 
(34.9987,85.5131) (54.6267,-120.771) (-18.4438,146.599) (-37.1066,66.5761) 

(52.8757,0) (-2.49765,-1.35878) (-14.9855,0) (-2.49765,1.35878) 
(2.18742,5.34457) (-2.31916,4.16101) (-1.15274,9.16244) (3.41417,-7.54816) 
(-13.8473,0) (0.620566,-4.21764) (-2.1669,0) (0.620566,4.21764) 
(2.18742,-5.34457) (3.41417,7.54816) (-1.15274,-9.16244) (-2.31916,-4.16101) 

(846.012,0) (-239.769,0) 
(-61.7029,0) (-18.222,0) 
(34.9987,-85.5131) (-18.4438,-146.599) 
(102.433,-18.7695) (-84.9133,72.9638) 
(-221.557,0) (-34.6704,0) 
(-57.5532,0) (77.4113,0) 
(34.9987,85.5131) (-18.4438,146.599) 
(102.433,18.7695) (-84.9133,-72.9638) 

(52.8757,0) (-14.9855,0) 
(-3.85643,0) (-1.13888,0) 
(2.18742,5.34457) (-1.15274,9.16244) 
(6.40209,1.17309) (-5.30708,-4.56024) 
(-13.8473,0) (-2.1669,0) 
(-3.59707,0) (4.8382,0) 
(2.18742,-5.34457) (-1.15274,-9.16244) 
(6.40209,-1.17309) (-5.30708,4.56024) 

